TrabajoPersonal
…
# Son dep_time, dep_delay, arr_time, arr_delay, tailnum, air_time

10. Ordena los vuelos de flights para encontrar los vuelos ms retrasados en la salida. Qu vuelos fueron los que salieron los primeros antes de lo previsto?

arrange(flights, dep_delay)

## # A tibble: 336,776 x 19
##     year month   day dep_time sched_dep_time dep_delay arr_time sched_arr_time
##    <int> <int> <int>    <int>          <int>     <dbl>    <int>          <int>
##  1  2013    12     7     2040           2123       -43       40           2352
##  2  2013     2     3     2022           2055       -33     2240           2338
##  3  2013    11    10     1408           1440       -32     1549           1559
##  4  2013     1    11     1900           1930       -30     2233           2243
##  5  2013     1    29     1703           1730       -27     1947           1957
##  6  2013     8     9      729            755       -26     1002            955
##  7  2013    10    23     1907           1932       -25     2143           2143
##  8  2013     3    30     2030           2055       -25     2213           2250
##  9  2013     3     2     1431           1455       -24     1601           1631
## 10  2013     5     5      934            958       -24     1225           1309
## # ... with 336,766 more rows, and 11 more variables: arr_delay <dbl>,
## #   carrier <chr>, flight <int>, tailnum <chr>, origin <chr>, dest <chr>,
## #   air_time <dbl>, distance <dbl>, hour <dbl>, minute <dbl>, time_hour <dttm>

arrange(flights, desc(dep_delay))

## # A tibble: 336,776 x 19
##     year month   day dep_time sched_dep_time dep_delay arr_time sched_arr_time
##    <int> <int> <int>    <int>          <int>     <dbl>    <int>          <int>
##  1  2013     1     9      641            900      1301     1242           1530
##  2  2013     6    15     1432           1935      1137     1607           2120
##  3  2013     1    10     1121           1635      1126     1239           1810
##  4  2013     9    20     1139           1845      1014     1457           2210
##  5  2013     7    22      845           1600      1005     1044           1815
##  6  2013     4    10     1100           1900       960     1342           2211
##  7  2013     3    17     2321            810       911      135           1020
##  8  2013     6    27      959           1900       899     1236           2226
##  9  2013     7    22     2257            759       898      121           1026
## 10  2013    12     5      756           1700       896     1058           2020
## # ... with 336,766 more rows, and 11 more variables: arr_delay <dbl>,
## #   carrier <chr>, flight <int>, tailnum <chr>, origin <chr>, dest <chr>,
## #   air_time <dbl>, distance <dbl>, hour <dbl>, minute <dbl>, time_hour <dttm>

11. Ordena los vuelos de flights para encontrar los vuelos ms rpidos. Usa el concepto de rapidez que consideres.

flights$vel <- flights$distance / flights$air_time
arrange(flights, desc(vel))

## # A tibble: 336,776 x 20
##     year month   day dep_time sched_dep_time dep_delay arr_time sched_arr_time
##    <int> <int> <int>    <int>          <int>     <dbl>    <int>          <int>
##  1  2013     5    25     1709           1700         9     1923           1937
##  2  2013     7     2     1558           1513        45     1745           1719
##  3  2013     5    13     2040           2025        15     2225           2226
##  4  2013     3    23     1914           1910         4     2045           2043
##  5  2013     1    12     1559           1600        -1     1849           1917
##  6  2013    11    17      650            655        -5     1059           1150
##  7  2013     2    21     2355           2358        -3      412            438
##  8  2013    11    17      759            800        -1     1212           1255
##  9  2013    11    16     2003           1925        38       17             36
## 10  2013    11    16     2349           2359       -10      402            440
## # ... with 336,766 more rows, and 12 more variables: arr_delay <dbl>,
## #   carrier <chr>, flight <int>, tailnum <chr>, origin <chr>, dest <chr>,
## #   air_time <dbl>, distance <dbl>, hour <dbl>, minute <dbl>, time_hour <dttm>,
## #   vel <dbl>

12. Qu vuelos tienen los trayectos ms largos?

  flights %>% 
  group_by(origin, dest) %>% 
  summarise(
      distance = mean(distance)
  ) %>% 
  arrange(desc(distance))

## `summarise()` has grouped output by 'origin'. You can override using the `.groups` argument.

## # A tibble: 224 x 3
## # Groups:   origin [3]
##    origin dest  distance
##    <chr>  <chr>    <dbl>
##  1 JFK    HNL       4983
##  2 EWR    HNL       4963
##  3 EWR    ANC       3370
##  4 JFK    SFO       2586
##  5 JFK    OAK       2576
##  6 JFK    SJC       2569
##  7 EWR    SFO       2565
##  8 JFK    SMF       2521
##  9 JFK    LAX       2475
## 10 JFK    BUR       2465
## # ... with 214 more rows

13. Qu vuelos tienen los trayectos ms cortos?

  flights %>% 
  group_by(origin, dest) %>% 
  summarise(
      distance = mean(distance)
  ) %>% 
  arrange(distance)

## `summarise()` has grouped output by 'origin'. You can override using the `.groups` argument.

## # A tibble: 224 x 3
## # Groups:   origin [3]
##    origin dest  distance
##    <chr>  <chr>    <dbl>
##  1 EWR    LGA         17
##  2 EWR    PHL         80
##  3 JFK    PHL         94
##  4 LGA    PHL         96
##  5 EWR    BDL        116
##  6 EWR    ALB        143
##  7 EWR    PVD        160
##  8 EWR    BWI        169
##  9 JFK    MVY        173
## 10 JFK    BWI        184
## # ... with 214 more rows
…
